GDAC_Capstone_Cyclistic
…
electric_bikes for Casual (34%) and Member (31%) riders with a median ride_length of 14.33 mins and 9.83 mins respectively, and lastly

docked_bikes for Casual (25%) and Member (17%) riders with a median ride_length of 24.70 mins and 10.93 mins respectively

In the code below, we add another layer of grouping to the dataframe: rideable_type

df_dow2 <- df %>%
  group_by(member_casual, rideable_type, day_of_week) %>%
  summarise(median_duration_mins = median(ride_length_mins),
            number_of_rides = n(), .groups = "drop_last") %>%
  mutate(percentage = paste0(round(number_of_rides / sum(number_of_rides) * 100, 0),"%"))
df_dow2

## # A tibble: 42 x 6
## # Groups:   member_casual, rideable_type [6]
##    member_casual rideable_type day_of_week median_duration_mins number_of_rides
##    <chr>         <chr>         <ord>                      <dbl>           <int>
##  1 casual        classic_bike  Monday                      16.9           99326
##  2 casual        classic_bike  Tuesday                     15.4           95463
##  3 casual        classic_bike  Wednesday                   15             92246
##  4 casual        classic_bike  Thursday                    14.7           97494
##  5 casual        classic_bike  Friday                      15.7          127518
##  6 casual        classic_bike  Saturday                    18.4          217557
##  7 casual        classic_bike  Sunday                      19.2          185523
##  8 casual        docked_bike   Monday                      25.5           59773
##  9 casual        docked_bike   Tuesday                     22.8           51355
## 10 casual        docked_bike   Wednesday                   21.5           55699
## # ... with 32 more rows, and 1 more variable: percentage <chr>
…
